---
http_interactions:
- request:
    method: get
    uri: https://www.flickr.com/services/rest?api_key=<FLICKR_API_KEY>&content_type=1&format=json&lat=39.7392358&lon=-104.990251&method=flickr.photos.search&nojsoncallback=1&per_page=10&safe_search=1&sort=interestingness-desc&tags=downtown,skyline
    body:
      encoding: US-ASCII
      string: ''
    headers:
      User-Agent:
      - Faraday v0.15.4
      Accept-Encoding:
      - gzip;q=1.0,deflate;q=0.6,identity;q=0.3
      Accept:
      - "*/*"
  response:
    status:
      code: 200
      message: OK
    headers:
      Content-Type:
      - application/json
      Transfer-Encoding:
      - chunked
      Connection:
      - keep-alive
      Vary:
      - Accept-Encoding
      Date:
      - Tue, 30 Jul 2019 17:36:00 GMT
      Server:
      - Apache/2.4.39 (Ubuntu)
      X-Content-Type-Options:
      - nosniff
      X-Frame-Options:
      - SAMEORIGIN
      X-Cache:
      - Miss from cloudfront
      Via:
      - 1.1 7610b2284fcac4218da73162c45f1bb1.cloudfront.net (CloudFront)
      X-Amz-Cf-Pop:
      - ORD50
      X-Amz-Cf-Id:
      - YqtctV29FWCff77qiJgnISKK8HW1SpxhfxhypYVAz78IQXbi-pxAhQ==
    body:
      encoding: ASCII-8BIT
      string: '{"photos":{"page":1,"pages":537,"perpage":10,"total":"5364","photo":[{"id":"47949098166","owner":"74216903@N00","secret":"30b8d34160","server":"65535","farm":66,"title":"Denver","ispublic":1,"isfriend":0,"isfamily":0},{"id":"32691897517","owner":"11143435@N06","secret":"142cb38fcf","server":"65535","farm":66,"title":"Skyline","ispublic":1,"isfriend":0,"isfamily":0},{"id":"40433538333","owner":"20286982@N07","secret":"bb203ba130","server":"7910","farm":8,"title":"City
        Park Pavilion","ispublic":1,"isfriend":0,"isfamily":0},{"id":"46649685564","owner":"20816374@N04","secret":"e5a0d3b81e","server":"7856","farm":8,"title":"IMGP8782-Pano-Edit","ispublic":1,"isfriend":0,"isfamily":0},{"id":"39910698973","owner":"32411159@N05","secret":"532368e033","server":"4912","farm":5,"title":"Coors
        Field with Downtown Denver in background","ispublic":1,"isfriend":0,"isfamily":0},{"id":"46401295491","owner":"22216536@N07","secret":"98d36966cc","server":"4891","farm":5,"title":"Illusions
        of Grandeur","ispublic":1,"isfriend":0,"isfamily":0},{"id":"46066276302","owner":"22216536@N07","secret":"82c8afee42","server":"4901","farm":5,"title":"Faint
        Whispers of Hush","ispublic":1,"isfriend":0,"isfamily":0},{"id":"44127974920","owner":"90598485@N03","secret":"32627f2a54","server":"4895","farm":5,"title":"Downtown
        Denver, CO","ispublic":1,"isfriend":0,"isfamily":0},{"id":"30400931657","owner":"20286982@N07","secret":"c4241bb8f5","server":"1959","farm":2,"title":"The
        Pavilion at City Park","ispublic":1,"isfriend":0,"isfamily":0},{"id":"45039425291","owner":"62007874@N00","secret":"b99408e979","server":"1977","farm":2,"title":"Arapahoe
        Street from 14th Street, Denver","ispublic":1,"isfriend":0,"isfamily":0}]},"stat":"ok"}'
    http_version: 
  recorded_at: Tue, 30 Jul 2019 17:36:00 GMT
recorded_with: VCR 5.0.0
